(export (version D)
  (design
    (source /Users/paule/Documents/GELD_hardware/pcb_kicad/geld_2020/geld_2020.sch)
    (date "Samstag, 21. November 2020 um 00:06:43")
    (tool "Eeschema (5.1.6-0-10_14)")
    (sheet (number 1) (name /) (tstamps /)
      (title_block
        (title)
        (company)
        (rev)
        (date)
        (source geld_2020.sch)
        (comment (number 1) (value ""))
        (comment (number 2) (value ""))
        (comment (number 3) (value ""))
        (comment (number 4) (value "")))))
  (components
    (comp (ref U$1)
      (value RS485SOIC)
      (footprint Package_SO:SOIC-8-1EP_3.9x4.9mm_P1.27mm_EP2.29x3mm)
      (libsource (lib 0_geld_2020) (part RS485SOIC) (description ""))
      (sheetpath (names /) (tstamps /))
      (tstamp 5C3C6B25))
    (comp (ref R7)
      (value 560)
      (footprint Resistor_SMD:R_0603_1608Metric_Pad1.05x0.95mm_HandSolder)
      (libsource (lib Device) (part R) (description Resistor))
      (sheetpath (names /) (tstamps /))
      (tstamp 5C3C6B32))
    (comp (ref R8)
      (value 130)
      (footprint Resistor_SMD:R_0603_1608Metric_Pad1.05x0.95mm_HandSolder)
      (libsource (lib Device) (part R) (description Resistor))
      (sheetpath (names /) (tstamps /))
      (tstamp 5C3C6B39))
    (comp (ref R9)
      (value 560)
      (footprint Resistor_SMD:R_0603_1608Metric_Pad1.05x0.95mm_HandSolder)
      (libsource (lib Device) (part R) (description Resistor))
      (sheetpath (names /) (tstamps /))
      (tstamp 5C3C6B40))
    (comp (ref R5)
      (value 4k7)
      (footprint Resistor_SMD:R_0603_1608Metric_Pad1.05x0.95mm_HandSolder)
      (libsource (lib Device) (part R) (description Resistor))
      (sheetpath (names /) (tstamps /))
      (tstamp 5C3C6B47))
    (comp (ref R6)
      (value 4k7)
      (footprint Resistor_SMD:R_0603_1608Metric_Pad1.05x0.95mm_HandSolder)
      (libsource (lib Device) (part R) (description Resistor))
      (sheetpath (names /) (tstamps /))
      (tstamp 5C3C6B4E))
    (comp (ref R3)
      (value 6K8)
      (footprint Resistor_SMD:R_0603_1608Metric_Pad1.05x0.95mm_HandSolder)
      (libsource (lib Device) (part R) (description Resistor))
      (sheetpath (names /) (tstamps /))
      (tstamp 5C3C6B55))
    (comp (ref U$3)
      (value TIMO_FXTIMO_FX)
      (footprint geld_module:TIMO_RX_RDM)
      (libsource (lib 0_geld_2020) (part TIMO_FXTIMO_FX) (description ""))
      (sheetpath (names /) (tstamps /))
      (tstamp 5C3C6B88))
    (comp (ref C1)
      (value 100nF)
      (footprint Capacitor_SMD:C_0603_1608Metric_Pad1.05x0.95mm_HandSolder)
      (libsource (lib Device) (part C) (description "Unpolarized capacitor"))
      (sheetpath (names /) (tstamps /))
      (tstamp 5C3C6B8E))
    (comp (ref C2)
      (value 4.7uF)
      (footprint Capacitor_SMD:C_0603_1608Metric_Pad1.05x0.95mm_HandSolder)
      (libsource (lib Device) (part C) (description "Unpolarized capacitor"))
      (sheetpath (names /) (tstamps /))
      (tstamp 5C3C6B95))
    (comp (ref R10)
      (value 1K)
      (footprint Resistor_SMD:R_0603_1608Metric_Pad1.05x0.95mm_HandSolder)
      (libsource (lib Device) (part R) (description Resistor))
      (sheetpath (names /) (tstamps /))
      (tstamp 5C3C6BB7))
    (comp (ref R11)
      (value 1K)
      (footprint Resistor_SMD:R_0603_1608Metric_Pad1.05x0.95mm_HandSolder)
      (libsource (lib Device) (part R) (description Resistor))
      (sheetpath (names /) (tstamps /))
      (tstamp 5C3C6BCC))
    (comp (ref R12)
      (value 1K)
      (footprint Resistor_SMD:R_0603_1608Metric_Pad1.05x0.95mm_HandSolder)
      (libsource (lib Device) (part R) (description Resistor))
      (sheetpath (names /) (tstamps /))
      (tstamp 5C3C6BD3))
    (comp (ref R4)
      (value 3K9)
      (footprint Resistor_SMD:R_0603_1608Metric_Pad1.05x0.95mm_HandSolder)
      (libsource (lib Device) (part R) (description Resistor))
      (sheetpath (names /) (tstamps /))
      (tstamp 5C3C6BF5))
    (comp (ref U4)
      (value MCP3008)
      (footprint Package_SO:SOIC-16_4.55x10.3mm_P1.27mm)
      (libsource (lib 0_geld_2020) (part MCP3008) (description ""))
      (sheetpath (names /) (tstamps /))
      (tstamp 5C3C6E21))
    (comp (ref C8)
      (value 100nF)
      (footprint Capacitor_SMD:C_0603_1608Metric_Pad1.05x0.95mm_HandSolder)
      (libsource (lib Device) (part C) (description "Unpolarized capacitor"))
      (sheetpath (names /) (tstamps /))
      (tstamp 5C3C6E2E))
    (comp (ref POT2)
      (value BOURNS_SLIDER_45MM_LED)
      (footprint geld_module:BOURNS_SLIDER_45MM_LED)
      (libsource (lib 0_geld_2020) (part BOURNS_SLIDER_45MM_LED) (description ""))
      (sheetpath (names /) (tstamps /))
      (tstamp 5C3C6E7D))
    (comp (ref POT3)
      (value BOURNS_SLIDER_45MM_LED)
      (footprint geld_module:BOURNS_SLIDER_45MM_LED)
      (libsource (lib 0_geld_2020) (part BOURNS_SLIDER_45MM_LED) (description ""))
      (sheetpath (names /) (tstamps /))
      (tstamp 5C3C6E84))
    (comp (ref POT6)
      (value BOURNS_SLIDER_45MM_LED)
      (footprint geld_module:BOURNS_SLIDER_45MM_LED)
      (libsource (lib 0_geld_2020) (part BOURNS_SLIDER_45MM_LED) (description ""))
      (sheetpath (names /) (tstamps /))
      (tstamp 5C3C6E99))
    (comp (ref POT7)
      (value BOURNS_SLIDER_45MM_LED)
      (footprint geld_module:BOURNS_SLIDER_45MM_LED)
      (libsource (lib 0_geld_2020) (part BOURNS_SLIDER_45MM_LED) (description ""))
      (sheetpath (names /) (tstamps /))
      (tstamp 5C3C6EA0))
    (comp (ref POT1)
      (value BOURNS_SLIDER_45MM_LED)
      (footprint geld_module:BOURNS_SLIDER_45MM_LED)
      (libsource (lib 0_geld_2020) (part BOURNS_SLIDER_45MM_LED) (description ""))
      (sheetpath (names /) (tstamps /))
      (tstamp 5C3C6EAE))
    (comp (ref X1)
      (value 2,4"TFT_TOUCHSCREEN_ILI9341)
      (footprint geld_module:ER-TFT_2.4_TOUCH_neu)
      (libsource (lib 0_geld_2020) (part 2,4"TFT_TOUCHSCREEN_ILI9341) (description ""))
      (sheetpath (names /) (tstamps /))
      (tstamp 5C3C6EFE))
    (comp (ref POT5)
      (value BOURNS_SLIDER_45MM_LED)
      (footprint geld_module:BOURNS_SLIDER_45MM_LED)
      (libsource (lib 0_geld_2020) (part BOURNS_SLIDER_45MM_LED) (description ""))
      (sheetpath (names /) (tstamps /))
      (tstamp 5C3C6E92))
    (comp (ref POT8)
      (value BOURNS_SLIDER_45MM_LED)
      (footprint geld_module:BOURNS_SLIDER_45MM_LED)
      (libsource (lib 0_geld_2020) (part BOURNS_SLIDER_45MM_LED) (description ""))
      (sheetpath (names /) (tstamps /))
      (tstamp 5C3C6EA7))
    (comp (ref POT4)
      (value BOURNS_SLIDER_45MM_LED)
      (footprint geld_module:BOURNS_SLIDER_45MM_LED)
      (libsource (lib 0_geld_2020) (part BOURNS_SLIDER_45MM_LED) (description ""))
      (sheetpath (names /) (tstamps /))
      (tstamp 5C3C6E8B))
    (comp (ref J9)
      (value Conn_01x07_Female)
      (footprint Connector_PinSocket_2.54mm:PinSocket_1x07_P2.54mm_Vertical)
      (datasheet ~)
      (libsource (lib Connector) (part Conn_01x07_Female) (description "Generic connector, single row, 01x07, script generated (kicad-library-utils/schlib/autogen/connector/)"))
      (sheetpath (names /) (tstamps /))
      (tstamp 5CDF6137))
    (comp (ref D1)
      (value CRMX_STATUS_LED)
      (footprint LED_SMD:LED_0805_2012Metric_Pad1.15x1.40mm_HandSolder)
      (datasheet ~)
      (libsource (lib Device) (part LED) (description "Light emitting diode"))
      (sheetpath (names /) (tstamps /))
      (tstamp 5C4F8EB0))
    (comp (ref D2)
      (value CRMX_LINK_LED)
      (footprint LED_SMD:LED_0805_2012Metric_Pad1.15x1.40mm_HandSolder)
      (datasheet ~)
      (libsource (lib Device) (part LED) (description "Light emitting diode"))
      (sheetpath (names /) (tstamps /))
      (tstamp 5C4F90A0))
    (comp (ref D3)
      (value CRMX_DMX_LED)
      (footprint LED_SMD:LED_0805_2012Metric_Pad1.15x1.40mm_HandSolder)
      (datasheet ~)
      (libsource (lib Device) (part LED) (description "Light emitting diode"))
      (sheetpath (names /) (tstamps /))
      (tstamp 5C4F9194))
    (comp (ref R13)
      (value 1K)
      (footprint Resistor_SMD:R_0603_1608Metric_Pad1.05x0.95mm_HandSolder)
      (libsource (lib Device) (part R) (description Resistor))
      (sheetpath (names /) (tstamps /))
      (tstamp 5C5858A1))
    (comp (ref D4)
      (value CRMX_RDM_LED)
      (footprint LED_SMD:LED_0805_2012Metric_Pad1.15x1.40mm_HandSolder)
      (datasheet ~)
      (libsource (lib Device) (part LED) (description "Light emitting diode"))
      (sheetpath (names /) (tstamps /))
      (tstamp 5C585996))
    (comp (ref JP1)
      (value ANTENNA_SEL)
      (footprint Jumper:SolderJumper-2_P1.3mm_Open_Pad1.0x1.5mm)
      (datasheet ~)
      (libsource (lib Jumper) (part Jumper_2_Open) (description "Jumper, 2-pole, open"))
      (sheetpath (names /) (tstamps /))
      (tstamp 5C961A8F))
    (comp (ref SW4)
      (value BUT1)
      (footprint geld_module:CherryMX1A_LED)
      (libsource (lib Switch) (part SW_Push_LED) (description "Push button switch with LED, generic"))
      (sheetpath (names /) (tstamps /))
      (tstamp 5CD8B370))
    (comp (ref SW5)
      (value BUT2)
      (footprint geld_module:CherryMX1A_LED)
      (libsource (lib Switch) (part SW_Push_LED) (description "Push button switch with LED, generic"))
      (sheetpath (names /) (tstamps /))
      (tstamp 5CD8B777))
    (comp (ref SW6)
      (value BUT3)
      (footprint geld_module:CherryMX1A_LED)
      (libsource (lib Switch) (part SW_Push_LED) (description "Push button switch with LED, generic"))
      (sheetpath (names /) (tstamps /))
      (tstamp 5CD8B873))
    (comp (ref SW7)
      (value BUT4)
      (footprint geld_module:CherryMX1A_LED)
      (libsource (lib Switch) (part SW_Push_LED) (description "Push button switch with LED, generic"))
      (sheetpath (names /) (tstamps /))
      (tstamp 5CD8B95C))
    (comp (ref SW8)
      (value BUT5)
      (footprint geld_module:CherryMX1A_LED)
      (libsource (lib Switch) (part SW_Push_LED) (description "Push button switch with LED, generic"))
      (sheetpath (names /) (tstamps /))
      (tstamp 5CD8BA52))
    (comp (ref SW9)
      (value BUT6)
      (footprint geld_module:CherryMX1A_LED)
      (libsource (lib Switch) (part SW_Push_LED) (description "Push button switch with LED, generic"))
      (sheetpath (names /) (tstamps /))
      (tstamp 5CD8BB42))
    (comp (ref SW10)
      (value BUT7)
      (footprint geld_module:CherryMX1A_LED)
      (libsource (lib Switch) (part SW_Push_LED) (description "Push button switch with LED, generic"))
      (sheetpath (names /) (tstamps /))
      (tstamp 5CD8BC32))
    (comp (ref SW11)
      (value BUT8)
      (footprint geld_module:CherryMX1A_LED)
      (libsource (lib Switch) (part SW_Push_LED) (description "Push button switch with LED, generic"))
      (sheetpath (names /) (tstamps /))
      (tstamp 5CD8BD26))
    (comp (ref U6)
      (value PCA9956)
      (footprint "geld_module:PCA9956_htssop(38)")
      (libsource (lib 0_geld_2020) (part PCA9956) (description ""))
      (sheetpath (names /) (tstamps /))
      (tstamp 5CE46981))
    (comp (ref R29)
      (value 10K)
      (footprint Resistor_SMD:R_0603_1608Metric_Pad1.05x0.95mm_HandSolder)
      (libsource (lib Device) (part R) (description Resistor))
      (sheetpath (names /) (tstamps /))
      (tstamp 5EF3BA50))
    (comp (ref C26)
      (value 100nF)
      (footprint Capacitor_SMD:C_0603_1608Metric_Pad1.05x0.95mm_HandSolder)
      (libsource (lib Device) (part C) (description "Unpolarized capacitor"))
      (sheetpath (names /) (tstamps /))
      (tstamp 64581A72))
    (comp (ref R15)
      (value 1K)
      (footprint Resistor_SMD:R_0603_1608Metric_Pad1.05x0.95mm_HandSolder)
      (libsource (lib Device) (part R) (description Resistor))
      (sheetpath (names /) (tstamps /))
      (tstamp 65AAE567))
    (comp (ref SW3)
      (value UBUT0)
      (footprint geld_module:CherryMX1A_LED)
      (libsource (lib Switch) (part SW_Push_LED) (description "Push button switch with LED, generic"))
      (sheetpath (names /) (tstamps /))
      (tstamp 6609EE98))
    (comp (ref SW2)
      (value UBUT1)
      (footprint geld_module:CherryMX1A_LED)
      (libsource (lib Switch) (part SW_Push_LED) (description "Push button switch with LED, generic"))
      (sheetpath (names /) (tstamps /))
      (tstamp 6609F2A7))
    (comp (ref U2)
      (value MCP23017_SO_0)
      (footprint Package_SO:SOIC-28W_7.5x17.9mm_P1.27mm)
      (datasheet http://ww1.microchip.com/downloads/en/DeviceDoc/20001952C.pdf)
      (libsource (lib 0_geld_2020) (part MCP23017_SO_0) (description ""))
      (sheetpath (names /) (tstamps /))
      (tstamp 625C1084))
    (comp (ref D5)
      (value LED_ENCODER)
      (footprint LED_THT:LED_D3.0mm)
      (datasheet ~)
      (libsource (lib Device) (part LED) (description "Light emitting diode"))
      (sheetpath (names /) (tstamps /))
      (tstamp 66F8FCDA))
    (comp (ref C6)
      (value 0.1uF)
      (footprint Capacitor_SMD:C_0603_1608Metric_Pad1.05x0.95mm_HandSolder)
      (libsource (lib Device) (part C) (description "Unpolarized capacitor"))
      (sheetpath (names /) (tstamps /))
      (tstamp 5E81C055))
    (comp (ref M1)
      (value MCP1525)
      (footprint Package_TO_SOT_SMD:SOT-23_Handsoldering)
      (libsource (lib 0_geld_2020) (part MCP1525) (description ""))
      (sheetpath (names /) (tstamps /))
      (tstamp 5F7BB12C))
    (comp (ref C5)
      (value 100nF)
      (footprint Capacitor_SMD:C_0603_1608Metric_Pad1.05x0.95mm_HandSolder)
      (libsource (lib Device) (part C) (description "Unpolarized capacitor"))
      (sheetpath (names /) (tstamps /))
      (tstamp 5F90EBC7))
    (comp (ref R2)
      (value 4K7)
      (footprint Resistor_SMD:R_0603_1608Metric_Pad1.05x0.95mm_HandSolder)
      (libsource (lib Device) (part R) (description Resistor))
      (sheetpath (names /) (tstamps /))
      (tstamp 5CA99349))
    (comp (ref R1)
      (value 4K7)
      (footprint Resistor_SMD:R_0603_1608Metric_Pad1.05x0.95mm_HandSolder)
      (libsource (lib Device) (part R) (description Resistor))
      (sheetpath (names /) (tstamps /))
      (tstamp 5CA99493))
    (comp (ref C10)
      (value 100nF)
      (footprint Capacitor_SMD:C_0603_1608Metric_Pad1.05x0.95mm_HandSolder)
      (libsource (lib Device) (part C) (description "Unpolarized capacitor"))
      (sheetpath (names /) (tstamps /))
      (tstamp 60E0EA54))
    (comp (ref C9)
      (value 100nF)
      (footprint Capacitor_SMD:C_0603_1608Metric_Pad1.05x0.95mm_HandSolder)
      (libsource (lib Device) (part C) (description "Unpolarized capacitor"))
      (sheetpath (names /) (tstamps /))
      (tstamp 613487A6))
    (comp (ref C4)
      (value 100nF)
      (footprint Capacitor_SMD:C_0603_1608Metric_Pad1.05x0.95mm_HandSolder)
      (libsource (lib Device) (part C) (description "Unpolarized capacitor"))
      (sheetpath (names /) (tstamps /))
      (tstamp 61348D9A))
    (comp (ref R28)
      (value 3K3)
      (footprint Resistor_SMD:R_0603_1608Metric_Pad1.05x0.95mm_HandSolder)
      (libsource (lib Device) (part R) (description Resistor))
      (sheetpath (names /) (tstamps /))
      (tstamp 5EE53BD7))
    (comp (ref C7)
      (value 100nF)
      (footprint Capacitor_SMD:C_0603_1608Metric_Pad1.05x0.95mm_HandSolder)
      (libsource (lib Device) (part C) (description "Unpolarized capacitor"))
      (sheetpath (names /) (tstamps /))
      (tstamp 61A796B3))
    (comp (ref C3)
      (value 100nF)
      (footprint Capacitor_SMD:C_0603_1608Metric_Pad1.05x0.95mm_HandSolder)
      (libsource (lib Device) (part C) (description "Unpolarized capacitor"))
      (sheetpath (names /) (tstamps /))
      (tstamp 5C3C6B5C))
    (comp (ref J4)
      (value 1X5)
      (footprint Connector_JST:JST_PH_B5B-PH-K_1x05_P2.00mm_Vertical)
      (libsource (lib 0_geld_2020) (part 1X5) (description ""))
      (sheetpath (names /) (tstamps /))
      (tstamp 5C3C6BE7))
    (comp (ref SW12)
      (value EC12E_SW)
      (footprint geld_module:ALPS_EC12E_SW)
      (libsource (lib 0_geld_2020) (part EC12E_SW) (description ""))
      (sheetpath (names /) (tstamps /))
      (tstamp 63EE20C1))
    (comp (ref B1)
      (value polulu_2808_switchboard)
      (footprint power_modules:polulu_2808_switchboard)
      (libsource (lib power_modules) (part polulu_2808_switchboard) (description ""))
      (sheetpath (names /) (tstamps /))
      (tstamp 5F1DF81D))
    (comp (ref B3)
      (value AdafruitPowerboost1000X)
      (footprint power_modules:powerboost_1000c)
      (libsource (lib power_modules) (part AdafruitPowerboost1000X) (description ""))
      (sheetpath (names /) (tstamps /))
      (tstamp 5F1E1037))
    (comp (ref B2)
      (value sparkfun_fuelgauge)
      (footprint power_modules:sparkfun_fuelgauge)
      (libsource (lib power_modules) (part sparkfun_fuelgauge) (description ""))
      (sheetpath (names /) (tstamps /))
      (tstamp 5F1E1D57))
    (comp (ref J1)
      (value BATT_CONN)
      (footprint Connector_JST:JST_PH_B2B-PH-K_1x02_P2.00mm_Vertical)
      (datasheet ~)
      (libsource (lib Connector) (part Conn_01x02_Male) (description "Generic connector, single row, 01x02, script generated (kicad-library-utils/schlib/autogen/connector/)"))
      (sheetpath (names /) (tstamps /))
      (tstamp 5F1E2D06))
    (comp (ref J3)
      (value BURCHI_CONN)
      (footprint Connector_JST:JST_PH_B6B-PH-K_1x06_P2.00mm_Vertical)
      (datasheet ~)
      (libsource (lib Connector) (part Conn_01x06_Male) (description "Generic connector, single row, 01x06, script generated (kicad-library-utils/schlib/autogen/connector/)"))
      (sheetpath (names /) (tstamps /))
      (tstamp 5F1E3F6C))
    (comp (ref D6)
      (value POWER_LED)
      (footprint LED_THT:LED_D3.0mm)
      (datasheet ~)
      (libsource (lib Device) (part LED) (description "Light emitting diode"))
      (sheetpath (names /) (tstamps /))
      (tstamp 5F20807E))
    (comp (ref D7)
      (value CHARGE_LED)
      (footprint LED_THT:LED_D3.0mm)
      (datasheet ~)
      (libsource (lib Device) (part LED) (description "Light emitting diode"))
      (sheetpath (names /) (tstamps /))
      (tstamp 5F20A2D6))
    (comp (ref D8)
      (value CHRG_DONE_LED)
      (footprint LED_THT:LED_D3.0mm)
      (datasheet ~)
      (libsource (lib Device) (part LED) (description "Light emitting diode"))
      (sheetpath (names /) (tstamps /))
      (tstamp 5F20A625))
    (comp (ref D9)
      (value LOBATT_LED)
      (footprint LED_THT:LED_D3.0mm)
      (datasheet ~)
      (libsource (lib Device) (part LED) (description "Light emitting diode"))
      (sheetpath (names /) (tstamps /))
      (tstamp 5F20A9CB))
    (comp (ref R16)
      (value 1K)
      (footprint Resistor_SMD:R_0603_1608Metric_Pad1.05x0.95mm_HandSolder)
      (datasheet ~)
      (libsource (lib Device) (part R) (description Resistor))
      (sheetpath (names /) (tstamps /))
      (tstamp 5F20D961))
    (comp (ref R17)
      (value 1K)
      (footprint Resistor_SMD:R_0603_1608Metric_Pad1.05x0.95mm_HandSolder)
      (datasheet ~)
      (libsource (lib Device) (part R) (description Resistor))
      (sheetpath (names /) (tstamps /))
      (tstamp 5F20DCA6))
    (comp (ref R18)
      (value 1K)
      (footprint Resistor_SMD:R_0603_1608Metric_Pad1.05x0.95mm_HandSolder)
      (datasheet ~)
      (libsource (lib Device) (part R) (description Resistor))
      (sheetpath (names /) (tstamps /))
      (tstamp 5F20E144))
    (comp (ref R19)
      (value 1K)
      (footprint Resistor_SMD:R_0603_1608Metric_Pad1.05x0.95mm_HandSolder)
      (datasheet ~)
      (libsource (lib Device) (part R) (description Resistor))
      (sheetpath (names /) (tstamps /))
      (tstamp 5F20E579))
    (comp (ref J2)
      (value SW_CONN)
      (footprint Connector_JST:JST_PH_B4B-PH-K_1x04_P2.00mm_Vertical)
      (datasheet ~)
      (libsource (lib Connector) (part Conn_01x04_Male) (description "Generic connector, single row, 01x04, script generated (kicad-library-utils/schlib/autogen/connector/)"))
      (sheetpath (names /) (tstamps /))
      (tstamp 5F5178EE))
    (comp (ref JP2)
      (value Jumper_2_Open)
      (footprint Jumper:SolderJumper-2_P1.3mm_Open_Pad1.0x1.5mm)
      (datasheet ~)
      (libsource (lib Jumper) (part Jumper_2_Open) (description "Jumper, 2-pole, open"))
      (sheetpath (names /) (tstamps /))
      (tstamp 5F70576B))
    (comp (ref JP3)
      (value LINK_SW)
      (footprint Jumper:SolderJumper-2_P1.3mm_Open_Pad1.0x1.5mm)
      (datasheet ~)
      (libsource (lib Jumper) (part Jumper_2_Open) (description "Jumper, 2-pole, open"))
      (sheetpath (names /) (tstamps /))
      (tstamp 62877923))
    (comp (ref C11)
      (value 100nF)
      (footprint Capacitor_SMD:C_0603_1608Metric_Pad1.05x0.95mm_HandSolder)
      (libsource (lib Device) (part C) (description "Unpolarized capacitor"))
      (sheetpath (names /) (tstamps /))
      (tstamp 60E0E5A2))
    (comp (ref C12)
      (value 100nF)
      (footprint Capacitor_SMD:C_0603_1608Metric_Pad1.05x0.95mm_HandSolder)
      (libsource (lib Device) (part C) (description "Unpolarized capacitor"))
      (sheetpath (names /) (tstamps /))
      (tstamp 60E0DFC5))
    (comp (ref C13)
      (value 100nF)
      (footprint Capacitor_SMD:C_0603_1608Metric_Pad1.05x0.95mm_HandSolder)
      (libsource (lib Device) (part C) (description "Unpolarized capacitor"))
      (sheetpath (names /) (tstamps /))
      (tstamp 60E0D9FF))
    (comp (ref C14)
      (value 100nF)
      (footprint Capacitor_SMD:C_0603_1608Metric_Pad1.05x0.95mm_HandSolder)
      (libsource (lib Device) (part C) (description "Unpolarized capacitor"))
      (sheetpath (names /) (tstamps /))
      (tstamp 60E0D398))
    (comp (ref C15)
      (value 100nF)
      (footprint Capacitor_SMD:C_0603_1608Metric_Pad1.05x0.95mm_HandSolder)
      (libsource (lib Device) (part C) (description "Unpolarized capacitor"))
      (sheetpath (names /) (tstamps /))
      (tstamp 60DB583A))
    (comp (ref U1)
      (value W25Q128JVS)
      (footprint Package_SO:SOIC-8_5.23x5.23mm_P1.27mm)
      (datasheet http://www.winbond.com/resource-files/w25q128jv_dtr%20revc%2003272018%20plus.pdf)
      (libsource (lib Memory_Flash) (part W25Q128JVS) (description "128Mb Serial Flash Memory, Standard/Dual/Quad SPI, SOIC-8"))
      (sheetpath (names /) (tstamps /))
      (tstamp 5FCDF1AB))
    (comp (ref C16)
      (value 100nF)
      (footprint Capacitor_SMD:C_0603_1608Metric_Pad1.05x0.95mm_HandSolder)
      (libsource (lib Device) (part C) (description "Unpolarized capacitor"))
      (sheetpath (names /) (tstamps /))
      (tstamp 608E0780))
    (comp (ref U$2)
      (value TEENSY_3.2_USB)
      (footprint geld_module:TEENS_3.2_USB)
      (libsource (lib 0_geld_2020) (part TEENSY_3.2_USB) (description ""))
      (sheetpath (names /) (tstamps /))
      (tstamp 5C3C6B75))
    (comp (ref U3)
      (value 6N138)
      (footprint Package_DIP:DIP-8_W7.62mm)
      (datasheet http://www.onsemi.com/pub/Collateral/HCPL2731-D.pdf)
      (libsource (lib Isolator) (part 6N138) (description "Low Input Current high Gain Split Darlington Optocouplers, -0.5V to 7V VDD, DIP-8"))
      (sheetpath (names /) (tstamps /))
      (tstamp 61A6B5EA))
    (comp (ref J6)
      (value MIDI_IN)
      (footprint Connector_JST:JST_PH_B5B-PH-K_1x05_P2.00mm_Vertical)
      (datasheet ~)
      (libsource (lib Connector) (part Conn_01x05_Female) (description "Generic connector, single row, 01x05, script generated (kicad-library-utils/schlib/autogen/connector/)"))
      (sheetpath (names /) (tstamps /))
      (tstamp 61A70B5F))
    (comp (ref J7)
      (value MIDI_OUT)
      (footprint Connector_JST:JST_PH_B5B-PH-K_1x05_P2.00mm_Vertical)
      (datasheet ~)
      (libsource (lib Connector) (part Conn_01x05_Female) (description "Generic connector, single row, 01x05, script generated (kicad-library-utils/schlib/autogen/connector/)"))
      (sheetpath (names /) (tstamps /))
      (tstamp 61A73269))
    (comp (ref D10)
      (value 1N4148)
      (footprint Diode_THT:D_DO-35_SOD27_P7.62mm_Horizontal)
      (datasheet https://assets.nexperia.com/documents/data-sheet/1N4148_1N4448.pdf)
      (libsource (lib Diode) (part 1N4148) (description "100V 0.15A standard switching diode, DO-35"))
      (sheetpath (names /) (tstamps /))
      (tstamp 61BBE0F5))
    (comp (ref R22)
      (value 47)
      (footprint Resistor_SMD:R_0603_1608Metric_Pad1.05x0.95mm_HandSolder)
      (libsource (lib Device) (part R) (description Resistor))
      (sheetpath (names /) (tstamps /))
      (tstamp 626E5F57))
    (comp (ref R21)
      (value 47)
      (footprint Resistor_SMD:R_0603_1608Metric_Pad1.05x0.95mm_HandSolder)
      (libsource (lib Device) (part R) (description Resistor))
      (sheetpath (names /) (tstamps /))
      (tstamp 6283B3FB))
    (comp (ref R14)
      (value 220)
      (footprint Resistor_SMD:R_0603_1608Metric_Pad1.05x0.95mm_HandSolder)
      (libsource (lib Device) (part R) (description Resistor))
      (sheetpath (names /) (tstamps /))
      (tstamp 628E52CF))
    (comp (ref C17)
      (value 100nF)
      (footprint Capacitor_SMD:C_0603_1608Metric_Pad1.05x0.95mm_HandSolder)
      (libsource (lib Device) (part C) (description "Unpolarized capacitor"))
      (sheetpath (names /) (tstamps /))
      (tstamp 61B196F4))
    (comp (ref R20)
      (value 470)
      (footprint Resistor_SMD:R_0603_1608Metric_Pad1.05x0.95mm_HandSolder)
      (libsource (lib Device) (part R) (description Resistor))
      (sheetpath (names /) (tstamps /))
      (tstamp 63C2423C))
    (comp (ref J5)
      (value 1X3)
      (footprint Connector_JST:JST_PH_B3B-PH-K_1x03_P2.00mm_Vertical)
      (libsource (lib 0_geld_2020) (part 1X3) (description ""))
      (sheetpath (names /) (tstamps /))
      (tstamp 5C3C6BEE))
    (comp (ref J8)
      (value PWM_CONN)
      (footprint Connector_JST:JST_PH_B6B-PH-K_1x06_P2.00mm_Vertical)
      (datasheet ~)
      (libsource (lib Connector) (part Conn_01x06_Male) (description "Generic connector, single row, 01x06, script generated (kicad-library-utils/schlib/autogen/connector/)"))
      (sheetpath (names /) (tstamps /))
      (tstamp 5DCB24B6)))
  (libparts
    (libpart (lib 0_geld_2020) (part 1X3)
      (fields
        (field (name Value) 1X3))
      (pins
        (pin (num 1) (name 1) (type unspc))
        (pin (num 2) (name 2) (type unspc))
        (pin (num 3) (name 3) (type unspc))))
    (libpart (lib 0_geld_2020) (part 1X5)
      (fields
        (field (name Value) 1X5))
      (pins
        (pin (num 1) (name 1) (type unspc))
        (pin (num 2) (name 2) (type unspc))
        (pin (num 3) (name 3) (type unspc))
        (pin (num 4) (name 4) (type unspc))
        (pin (num 5) (name 5) (type unspc))))
    (libpart (lib 0_geld_2020) (part 2,4"TFT_TOUCHSCREEN_ILI9341)
      (fields
        (field (name Reference) X)
        (field (name Value) 2,4"TFT_TOUCHSCREEN_ILI9341))
      (pins
        (pin (num 1) (name GND) (type unspc))
        (pin (num 2) (name VDD) (type unspc))
        (pin (num 3) (name DB0) (type unspc))
        (pin (num 4) (name DB1) (type unspc))
        (pin (num 5) (name DB2) (type unspc))
        (pin (num 6) (name DB3) (type unspc))
        (pin (num 7) (name DB4) (type unspc))
        (pin (num 8) (name DB5) (type unspc))
        (pin (num 9) (name DB6) (type unspc))
        (pin (num 10) (name DB7) (type unspc))
        (pin (num 11) (name DB8) (type unspc))
        (pin (num 12) (name DB9) (type unspc))
        (pin (num 13) (name DB10) (type unspc))
        (pin (num 14) (name DB11) (type unspc))
        (pin (num 15) (name DB12) (type unspc))
        (pin (num 16) (name DB13) (type unspc))
        (pin (num 17) (name DB14) (type unspc))
        (pin (num 18) (name DB15) (type unspc))
        (pin (num 19) (name DB16) (type unspc))
        (pin (num 20) (name DB17) (type unspc))
        (pin (num 21) (name /RESET_NC) (type unspc))
        (pin (num 22) (name TE) (type unspc))
        (pin (num 23) (name CS_LCD) (type unspc))
        (pin (num 24) (name SCK) (type unspc))
        (pin (num 25) (name DC_LCD) (type unspc))
        (pin (num 26) (name /RD) (type unspc))
        (pin (num 27) (name MOSI) (type unspc))
        (pin (num 28) (name MISO) (type unspc))
        (pin (num 29) (name BACKLIGHT) (type unspc))
        (pin (num 30) (name CS_TP) (type unspc))
        (pin (num 31) (name IRQ_PEN) (type unspc))
        (pin (num 32) (name MISO) (type unspc))
        (pin (num 33) (name SCK) (type unspc))
        (pin (num 34) (name MOSI) (type unspc))
        (pin (num 35) (name CS_SD) (type unspc))
        (pin (num 36) (name CS_FONT) (type unspc))
        (pin (num 37) (name CS_FLASH) (type unspc))
        (pin (num 38) (name WP_FLASH) (type unspc))
        (pin (num 39) (name HOLD_FLASH) (type unspc))
        (pin (num 40) (name GND) (type unspc))))
    (libpart (lib 0_geld_2020) (part BOURNS_SLIDER_45MM_LED)
      (fields
        (field (name Value) BOURNS_SLIDER_45MM_LED))
      (pins
        (pin (num 1) (name POT_3) (type passive))
        (pin (num 2) (name POT_2) (type passive))
        (pin (num 3) (name POT_1) (type passive))
        (pin (num LED+) (name LED+) (type passive))
        (pin (num LED-) (name LED-) (type passive))))
    (libpart (lib 0_geld_2020) (part EC12E_SW)
      (fields
        (field (name Reference) SW)
        (field (name Value) EC12E_SW))
      (pins
        (pin (num A) (name A) (type passive))
        (pin (num B) (name B) (type passive))
        (pin (num C) (name C) (type passive))
        (pin (num D) (name 1) (type passive))
        (pin (num E) (name 2) (type passive))
        (pin (num GND1) (name G) (type passive))
        (pin (num GND2) (name G) (type passive))))
    (libpart (lib 0_geld_2020) (part MCP1525)
      (footprints
        (fp *SOT-23*))
      (fields
        (field (name Reference) M)
        (field (name Value) MCP1525)
        (field (name Footprint) SOT-23))
      (pins
        (pin (num 1) (name VIN) (type BiDi))
        (pin (num 2) (name VOUT) (type BiDi))
        (pin (num 3) (name VSS) (type BiDi))))
    (libpart (lib 0_geld_2020) (part MCP23017_SO_0)
      (footprints
        (fp SOIC*7.5x17.9mm*P1.27mm*))
      (fields
        (field (name Reference) U)
        (field (name Value) MCP23017_SO_0)
        (field (name Footprint) Package_SO:SOIC-28W_7.5x17.9mm_P1.27mm))
      (pins
        (pin (num 1) (name GPB0) (type BiDi))
        (pin (num 2) (name GPB1) (type BiDi))
        (pin (num 3) (name GPB2) (type BiDi))
        (pin (num 4) (name GPB3) (type BiDi))
        (pin (num 5) (name GPB4) (type BiDi))
        (pin (num 6) (name GPB5) (type BiDi))
        (pin (num 7) (name GPB6) (type BiDi))
        (pin (num 8) (name GPB7) (type BiDi))
        (pin (num 9) (name VDD) (type power_in))
        (pin (num 10) (name VSS) (type power_in))
        (pin (num 11) (name NC) (type NotConnected))
        (pin (num 12) (name SCK) (type input))
        (pin (num 13) (name SDA) (type BiDi))
        (pin (num 14) (name NC) (type NotConnected))
        (pin (num 15) (name A0) (type input))
        (pin (num 16) (name A1) (type input))
        (pin (num 17) (name A2) (type input))
        (pin (num 18) (name ~RESET~) (type input))
        (pin (num 19) (name INTB) (type 3state))
        (pin (num 20) (name INTA) (type 3state))
        (pin (num 21) (name GPA0) (type BiDi))
        (pin (num 22) (name GPA1) (type BiDi))
        (pin (num 23) (name GPA2) (type BiDi))
        (pin (num 24) (name GPA3) (type BiDi))
        (pin (num 25) (name GPA4) (type BiDi))
        (pin (num 26) (name GPA5) (type BiDi))
        (pin (num 27) (name GPA6) (type BiDi))
        (pin (num 28) (name GPA7) (type BiDi))))
    (libpart (lib 0_geld_2020) (part MCP3008)
      (fields
        (field (name Value) MCP3008))
      (pins
        (pin (num 1) (name CH0) (type unspc))
        (pin (num 2) (name CH1) (type unspc))
        (pin (num 3) (name CH2) (type unspc))
        (pin (num 4) (name CH3) (type unspc))
        (pin (num 5) (name CH4) (type unspc))
        (pin (num 6) (name CH5) (type unspc))
        (pin (num 7) (name CH6) (type unspc))
        (pin (num 8) (name CH7) (type unspc))
        (pin (num 9) (name GND) (type unspc))
        (pin (num 10) (name CH/SHDN) (type unspc))
        (pin (num 11) (name DIN) (type unspc))
        (pin (num 12) (name DOUT) (type unspc))
        (pin (num 13) (name CLK) (type unspc))
        (pin (num 14) (name AGND) (type unspc))
        (pin (num 15) (name VREF) (type unspc))
        (pin (num 16) (name VDD) (type unspc))))
    (libpart (lib 0_geld_2020) (part PCA9956)
      (fields
        (field (name Reference) U)
        (field (name Value) PCA9956))
      (pins
        (pin (num 1) (name REXT) (type input))
        (pin (num 2) (name AD0) (type input))
        (pin (num 3) (name AD1) (type input))
        (pin (num 4) (name AD4) (type input))
        (pin (num 5) (name ~OE~) (type input))
        (pin (num 6) (name LED0) (type output))
        (pin (num 7) (name LED1) (type output))
        (pin (num 8) (name LED2) (type output))
        (pin (num 9) (name LED3) (type output))
        (pin (num 10) (name LED4) (type output))
        (pin (num 11) (name LED5) (type output))
        (pin (num 12) (name LED6) (type output))
        (pin (num 13) (name LED7) (type output))
        (pin (num 14) (name VSS0) (type output))
        (pin (num 15) (name LED8) (type output))
        (pin (num 16) (name LED9) (type output))
        (pin (num 17) (name LED10) (type output))
        (pin (num 18) (name VSS1) (type output))
        (pin (num 19) (name LED11) (type output))
        (pin (num 20) (name LED12) (type output))
        (pin (num 21) (name VSS2) (type output))
        (pin (num 22) (name LED13) (type output))
        (pin (num 23) (name LED14) (type output))
        (pin (num 24) (name LED15) (type output))
        (pin (num 25) (name VSS3) (type output))
        (pin (num 26) (name LED16) (type output))
        (pin (num 27) (name LED17) (type output))
        (pin (num 28) (name LED18) (type output))
        (pin (num 29) (name LED19) (type output))
        (pin (num 30) (name LED20) (type output))
        (pin (num 31) (name LED21) (type output))
        (pin (num 32) (name LED22) (type output))
        (pin (num 33) (name LED23) (type output))
        (pin (num 34) (name VSS4) (type output))
        (pin (num 35) (name ~RESET~) (type output))
        (pin (num 36) (name SCL) (type output))
        (pin (num 37) (name SDA) (type output))
        (pin (num 38) (name VDD) (type output))))
    (libpart (lib 0_geld_2020) (part RS485SOIC)
      (fields
        (field (name Value) RS485SOIC))
      (pins
        (pin (num 1) (name RO) (type unspc))
        (pin (num 2) (name /RE) (type unspc))
        (pin (num 3) (name DE) (type unspc))
        (pin (num 4) (name DI) (type unspc))
        (pin (num 5) (name GND) (type unspc))
        (pin (num 6) (name A) (type unspc))
        (pin (num 7) (name B) (type unspc))
        (pin (num 8) (name VCC) (type unspc))))
    (libpart (lib 0_geld_2020) (part TEENSY_3.2_USB)
      (fields
        (field (name Value) TEENSY_3.2_USB))
      (pins
        (pin (num 0) (name 0/RX1/T) (type unspc))
        (pin (num 1) (name 1/TX1/T) (type unspc))
        (pin (num 2) (name 2) (type unspc))
        (pin (num 3) (name 3/CAN-TX/PWM) (type unspc))
        (pin (num 3.3V) (name 3.3V) (type power_in))
        (pin (num 4) (name 4/CAN-RX/PWM) (type unspc))
        (pin (num 5) (name 5/PWM) (type unspc))
        (pin (num 6) (name 6/PWM) (type unspc))
        (pin (num 7) (name 7/RX3) (type unspc))
        (pin (num 8) (name 8/TX3) (type unspc))
        (pin (num 9) (name 9/RX2/PWM) (type unspc))
        (pin (num 10) (name 10/TX2/PWM) (type unspc))
        (pin (num 11) (name 11/MOSI) (type unspc))
        (pin (num 12) (name 12/MISO) (type unspc))
        (pin (num 13) (name 13/SCK/LED) (type unspc))
        (pin (num 24) (name 24) (type unspc))
        (pin (num 25) (name 25/T/PWM) (type unspc))
        (pin (num 26) (name 26/A15) (type unspc))
        (pin (num 27) (name 27/A16) (type unspc))
        (pin (num 28) (name 28/A17) (type unspc))
        (pin (num 29) (name 29/A18/SCL1) (type unspc))
        (pin (num 30) (name 30/A19/SDA1) (type unspc))
        (pin (num 31) (name 31/A20) (type unspc))
        (pin (num 32) (name 32/T/PWM) (type unspc))
        (pin (num 33) (name 33/T) (type unspc))
        (pin (num 14/A0) (name 14/A0) (type unspc))
        (pin (num 15/A1) (name 15/A1/T) (type unspc))
        (pin (num 16/A2) (name 16/A2/T) (type unspc))
        (pin (num 17/A3) (name 17/A3/T) (type unspc))
        (pin (num 18/A4) (name 18/A4/T/SDA0) (type unspc))
        (pin (num 19/A5) (name 19/A5/T/SCL0) (type unspc))
        (pin (num 20/A6) (name 20/A6/PWM) (type unspc))
        (pin (num 21/A7) (name 21/A7/PWM) (type unspc))
        (pin (num 22/A8) (name 22/A8/T/PWM) (type unspc))
        (pin (num 23/A9) (name 23/A9/T/PWM) (type unspc))
        (pin (num 3.3V1) (name 3.3V) (type power_in))
        (pin (num 3.3V2) (name 3.3V) (type power_in))
        (pin (num A10) (name A10) (type unspc))
        (pin (num A11) (name A11) (type unspc))
        (pin (num A12) (name A12) (type unspc))
        (pin (num A13) (name A13) (type unspc))
        (pin (num AGND) (name AGND) (type power_in))
        (pin (num AREF) (name AREF) (type power_in))
        (pin (num GND) (name GND) (type power_in))
        (pin (num GND1) (name GND) (type power_in))
        (pin (num GND2) (name GND) (type power_in))
        (pin (num PGM) (name PGM) (type unspc))
        (pin (num RESET/DAC) (name A14/DAC) (type unspc))
        (pin (num USB-D+) (name USB-D+) (type unspc))
        (pin (num USB_5V) (name USB_5V) (type power_in))
        (pin (num USB_D-) (name USB_D-) (type unspc))
        (pin (num USB_GND) (name USB_GND) (type power_in))
        (pin (num VBAT) (name VBAT) (type power_in))
        (pin (num VIN) (name VIN) (type power_in))
        (pin (num VUSB) (name VUSB) (type power_in))))
    (libpart (lib 0_geld_2020) (part TIMO_FXTIMO_FX)
      (fields
        (field (name Value) TIMO_FXTIMO_FX))
      (pins
        (pin (num 1) (name VSS) (type power_in))
        (pin (num 2) (name IRQ) (type output))
        (pin (num 3) (name CS) (type input))
        (pin (num 4) (name SCK) (type input))
        (pin (num 5) (name MOSI) (type input))
        (pin (num 6) (name MISO) (type output))
        (pin (num 7) (name VSS) (type power_in))
        (pin (num 8) (name DMX_TXD) (type output))
        (pin (num 9) (name VSS) (type power_in))
        (pin (num 10) (name RS485_DE) (type output))
        (pin (num 11) (name RS485_RE) (type output))
        (pin (num 12) (name DMX_RXD) (type input))
        (pin (num 13) (name RADIO_LED0) (type output))
        (pin (num 14) (name RADIO_LED1) (type output))
        (pin (num 15) (name RADIO_LED2) (type output))
        (pin (num 16) (name RADIO_LED3) (type output))
        (pin (num 17) (name RADIO_LED4) (type output))
        (pin (num 18) (name RDM_LED) (type output))
        (pin (num 19) (name DMX_LED) (type output))
        (pin (num 22) (name VSS) (type power_in))
        (pin (num 23) (name VSS) (type power_in))
        (pin (num 24) (name VSS) (type power_in))
        (pin (num 25) (name VSS) (type power_in))
        (pin (num 26) (name VSS) (type power_in))
        (pin (num 27) (name VSS) (type power_in))
        (pin (num 28) (name VSS) (type power_in))
        (pin (num 29) (name VSS) (type power_in))
        (pin (num 30) (name VSS) (type power_in))
        (pin (num 31) (name ANT_SEL) (type input))
        (pin (num 32) (name LINK_SW) (type input))
        (pin (num 33) (name STATUS_LED) (type output))
        (pin (num 34) (name LINK_LED) (type output))
        (pin (num 35) (name RF_LINK_LED) (type output))
        (pin (num 36) (name VDD) (type power_in))
        (pin (num 37) (name VSS) (type power_in))))
    (libpart (lib Connector) (part Conn_01x02_Male)
      (description "Generic connector, single row, 01x02, script generated (kicad-library-utils/schlib/autogen/connector/)")
      (docs ~)
      (footprints
        (fp Connector*:*_1x??_*))
      (fields
        (field (name Reference) J)
        (field (name Value) Conn_01x02_Male))
      (pins
        (pin (num 1) (name Pin_1) (type passive))
        (pin (num 2) (name Pin_2) (type passive))))
    (libpart (lib Connector) (part Conn_01x04_Male)
      (description "Generic connector, single row, 01x04, script generated (kicad-library-utils/schlib/autogen/connector/)")
      (docs ~)
      (footprints
        (fp Connector*:*_1x??_*))
      (fields
        (field (name Reference) J)
        (field (name Value) Conn_01x04_Male))
      (pins
        (pin (num 1) (name Pin_1) (type passive))
        (pin (num 2) (name Pin_2) (type passive))
        (pin (num 3) (name Pin_3) (type passive))
        (pin (num 4) (name Pin_4) (type passive))))
    (libpart (lib Connector) (part Conn_01x05_Female)
      (description "Generic connector, single row, 01x05, script generated (kicad-library-utils/schlib/autogen/connector/)")
      (docs ~)
      (footprints
        (fp Connector*:*_1x??_*))
      (fields
        (field (name Reference) J)
        (field (name Value) Conn_01x05_Female))
      (pins
        (pin (num 1) (name Pin_1) (type passive))
        (pin (num 2) (name Pin_2) (type passive))
        (pin (num 3) (name Pin_3) (type passive))
        (pin (num 4) (name Pin_4) (type passive))
        (pin (num 5) (name Pin_5) (type passive))))
    (libpart (lib Connector) (part Conn_01x06_Male)
      (description "Generic connector, single row, 01x06, script generated (kicad-library-utils/schlib/autogen/connector/)")
      (docs ~)
      (footprints
        (fp Connector*:*_1x??_*))
      (fields
        (field (name Reference) J)
        (field (name Value) Conn_01x06_Male))
      (pins
        (pin (num 1) (name Pin_1) (type passive))
        (pin (num 2) (name Pin_2) (type passive))
        (pin (num 3) (name Pin_3) (type passive))
        (pin (num 4) (name Pin_4) (type passive))
        (pin (num 5) (name Pin_5) (type passive))
        (pin (num 6) (name Pin_6) (type passive))))
    (libpart (lib Connector) (part Conn_01x07_Female)
      (description "Generic connector, single row, 01x07, script generated (kicad-library-utils/schlib/autogen/connector/)")
      (docs ~)
      (footprints
        (fp Connector*:*_1x??_*))
      (fields
        (field (name Reference) J)
        (field (name Value) Conn_01x07_Female))
      (pins
        (pin (num 1) (name Pin_1) (type passive))
        (pin (num 2) (name Pin_2) (type passive))
        (pin (num 3) (name Pin_3) (type passive))
        (pin (num 4) (name Pin_4) (type passive))
        (pin (num 5) (name Pin_5) (type passive))
        (pin (num 6) (name Pin_6) (type passive))
        (pin (num 7) (name Pin_7) (type passive))))
    (libpart (lib Device) (part C)
      (description "Unpolarized capacitor")
      (docs ~)
      (footprints
        (fp C_*))
      (fields
        (field (name Reference) C)
        (field (name Value) C))
      (pins
        (pin (num 1) (name ~) (type passive))
        (pin (num 2) (name ~) (type passive))))
    (libpart (lib Device) (part LED)
      (description "Light emitting diode")
      (docs ~)
      (footprints
        (fp LED*)
        (fp LED_SMD:*)
        (fp LED_THT:*))
      (fields
        (field (name Reference) D)
        (field (name Value) LED))
      (pins
        (pin (num 1) (name K) (type passive))
        (pin (num 2) (name A) (type passive))))
    (libpart (lib Device) (part R)
      (description Resistor)
      (docs ~)
      (footprints
        (fp R_*))
      (fields
        (field (name Reference) R)
        (field (name Value) R))
      (pins
        (pin (num 1) (name ~) (type passive))
        (pin (num 2) (name ~) (type passive))))
    (libpart (lib Diode) (part 1N4148)
      (aliases
        (alias 1N4448)
        (alias 1N4149)
        (alias 1N4151)
        (alias 1N914)
        (alias BA243)
        (alias BA244)
        (alias BA282)
        (alias BA283)
        (alias BAV17)
        (alias BAV18)
        (alias BAV19)
        (alias BAV20)
        (alias BAV21)
        (alias BAW75)
        (alias BAW76)
        (alias BAY93))
      (description "100V 0.15A standard switching diode, DO-35")
      (docs https://assets.nexperia.com/documents/data-sheet/1N4148_1N4448.pdf)
      (footprints
        (fp D*DO?35*))
      (fields
        (field (name Reference) D)
        (field (name Value) 1N4148)
        (field (name Footprint) Diode_THT:D_DO-35_SOD27_P7.62mm_Horizontal))
      (pins
        (pin (num 1) (name K) (type passive))
        (pin (num 2) (name A) (type passive))))
    (libpart (lib Isolator) (part 6N138)
      (aliases
        (alias 6N139))
      (description "Low Input Current high Gain Split Darlington Optocouplers, -0.5V to 7V VDD, DIP-8")
      (docs http://www.onsemi.com/pub/Collateral/HCPL2731-D.pdf)
      (footprints
        (fp DIP*W7.62mm*)
        (fp SMDIP*W9.53mm*))
      (fields
        (field (name Reference) U)
        (field (name Value) 6N138))
      (pins
        (pin (num 1) (name NC) (type NotConnected))
        (pin (num 2) (name C1) (type passive))
        (pin (num 3) (name C2) (type passive))
        (pin (num 4) (name NC) (type NotConnected))
        (pin (num 5) (name GND) (type passive))
        (pin (num 6) (name VO2) (type passive))
        (pin (num 7) (name VO1) (type passive))
        (pin (num 8) (name VCC) (type passive))))
    (libpart (lib Jumper) (part Jumper_2_Open)
      (description "Jumper, 2-pole, open")
      (docs ~)
      (footprints
        (fp Jumper*)
        (fp TestPoint*2Pads*)
        (fp TestPoint*Bridge*))
      (fields
        (field (name Reference) JP)
        (field (name Value) Jumper_2_Open))
      (pins
        (pin (num 1) (name A) (type passive))
        (pin (num 2) (name B) (type passive))))
    (libpart (lib Memory_Flash) (part W25Q32JVSS)
      (aliases
        (alias W25Q128JVS))
      (description "32Mb Serial Flash Memory, Standard/Dual/Quad SPI, SOIC-8")
      (docs http://www.winbond.com/resource-files/w25q32jv%20revg%2003272018%20plus.pdf)
      (footprints
        (fp SOIC*5.23x5.23mm*P1.27mm*))
      (fields
        (field (name Reference) U)
        (field (name Value) W25Q32JVSS)
        (field (name Footprint) Package_SO:SOIC-8_5.23x5.23mm_P1.27mm))
      (pins
        (pin (num 1) (name ~CS) (type input))
        (pin (num 2) (name "DO(IO1)") (type BiDi))
        (pin (num 3) (name IO2) (type BiDi))
        (pin (num 4) (name GND) (type power_in))
        (pin (num 5) (name "DI(IO0)") (type BiDi))
        (pin (num 6) (name CLK) (type input))
        (pin (num 7) (name IO3) (type BiDi))
        (pin (num 8) (name VCC) (type power_in))))
    (libpart (lib Switch) (part SW_Push_LED)
      (description "Push button switch with LED, generic")
      (docs ~)
      (fields
        (field (name Reference) SW)
        (field (name Value) SW_Push_LED))
      (pins
        (pin (num 1) (name 1) (type passive))
        (pin (num 2) (name 2) (type passive))
        (pin (num 3) (name K) (type passive))
        (pin (num 4) (name A) (type passive))))
    (libpart (lib power_modules) (part AdafruitPowerboost1000X)
      (fields
        (field (name Reference) B)
        (field (name Value) AdafruitPowerboost1000X))
      (pins
        (pin (num 1) (name USB) (type power_in))
        (pin (num 2) (name V_BAT) (type power_in))
        (pin (num 3) (name V_SHARED) (type power_in))
        (pin (num 4) (name EN) (type input))
        (pin (num 5) (name GND) (type power_in))
        (pin (num 6) (name LBO) (type output))
        (pin (num 7) (name GND) (type output))
        (pin (num 8) (name V_OUT) (type power_out))
        (pin (num 9) (name POWER_LED) (type output))
        (pin (num 10) (name CHARGE_LED) (type output))
        (pin (num 11) (name FULL_LED) (type output))))
    (libpart (lib power_modules) (part polulu_2808_switchboard)
      (fields
        (field (name Reference) B)
        (field (name Value) polulu_2808_switchboard))
      (pins
        (pin (num 1) (name VIN_1) (type power_in))
        (pin (num 2) (name VIN_2) (type power_in))
        (pin (num 3) (name GND_IN1) (type power_in))
        (pin (num 4) (name GND_IN2) (type power_in))
        (pin (num 5) (name ON) (type input))
        (pin (num 6) (name OFF) (type input))
        (pin (num 7) (name CTRL) (type input))
        (pin (num 8) (name VOUT_1) (type power_out))
        (pin (num 9) (name VOUT_2) (type power_out))
        (pin (num 10) (name GNDOUT_1) (type power_out))
        (pin (num 11) (name GNDOUT_2) (type power_out))
        (pin (num 12) (name BUTTON_1) (type input))
        (pin (num 13) (name BUTTON_2) (type input))))
    (libpart (lib power_modules) (part sparkfun_fuelgauge)
      (fields
        (field (name Reference) B)
        (field (name Value) sparkfun_fuelgauge))
      (pins
        (pin (num 1) (name VCC) (type power_in))
        (pin (num 2) (name GND) (type power_in))
        (pin (num 3) (name ALT) (type output))
        (pin (num 4) (name SDA) (type input))
        (pin (num 5) (name SCL) (type input))
        (pin (num 6) (name QST) (type output))
        (pin (num 7) (name BAT_-) (type power_in))
        (pin (num 8) (name BAT_+) (type power_in)))))
  (libraries
    (library (logical 0_geld_2020)
      (uri /Users/paule/Documents/GELD_hardware/pcb_kicad/geld_2020/library/geld_2020.lib))
    (library (logical Connector)
      (uri "/Library/Application Support/kicad/library/Connector.lib"))
    (library (logical Device)
      (uri "/Library/Application Support/kicad/library/Device.lib"))
    (library (logical Diode)
      (uri "/Library/Application Support/kicad/library/Diode.lib"))
    (library (logical Isolator)
      (uri "/Library/Application Support/kicad/library/Isolator.lib"))
    (library (logical Jumper)
      (uri "/Library/Application Support/kicad/library/Jumper.lib"))
    (library (logical Memory_Flash)
      (uri "/Library/Application Support/kicad/library/Memory_Flash.lib"))
    (library (logical Switch)
      (uri "/Library/Application Support/kicad/library/Switch.lib"))
    (library (logical power_modules)
      (uri /Users/paule/Documents/PlatformIO/Projects/burchi_board/burchi_powersupply/power_modules.lib)))
  (nets
    (net (code 1) (name /TP_CS)
      (node (ref X1) (pin 30))
      (node (ref U$2) (pin 3)))
    (net (code 2) (name +3V3)
      (node (ref SW7) (pin 4))
      (node (ref C26) (pin 1))
      (node (ref R15) (pin 2))
      (node (ref J8) (pin 1))
      (node (ref R20) (pin 2))
      (node (ref SW3) (pin 4))
      (node (ref SW2) (pin 4))
      (node (ref U2) (pin 9))
      (node (ref D5) (pin 2))
      (node (ref SW8) (pin 4))
      (node (ref SW9) (pin 4))
      (node (ref SW6) (pin 4))
      (node (ref SW10) (pin 4))
      (node (ref SW11) (pin 4))
      (node (ref SW5) (pin 4))
      (node (ref U6) (pin 38))
      (node (ref SW4) (pin 4))
      (node (ref R21) (pin 2))
      (node (ref POT4) (pin LED+))
      (node (ref U1) (pin 8))
      (node (ref U1) (pin 7))
      (node (ref C6) (pin 1))
      (node (ref U$2) (pin 3.3V2))
      (node (ref U$2) (pin 3.3V1))
      (node (ref U$2) (pin 3.3V))
      (node (ref POT8) (pin LED+))
      (node (ref M1) (pin 1))
      (node (ref C5) (pin 2))
      (node (ref POT5) (pin LED+))
      (node (ref U1) (pin 3))
      (node (ref R2) (pin 2))
      (node (ref R1) (pin 2))
      (node (ref J9) (pin 7))
      (node (ref C8) (pin 1))
      (node (ref C16) (pin 1))
      (node (ref R29) (pin 2))
      (node (ref X1) (pin 21))
      (node (ref X1) (pin 2))
      (node (ref U$3) (pin 36))
      (node (ref C1) (pin 1))
      (node (ref C2) (pin 1))
      (node (ref POT1) (pin LED+))
      (node (ref POT7) (pin LED+))
      (node (ref POT6) (pin LED+))
      (node (ref POT3) (pin LED+))
      (node (ref POT2) (pin LED+))
      (node (ref J3) (pin 1))
      (node (ref U4) (pin 16)))
    (net (code 3) (name /TX1)
      (node (ref R6) (pin 2))
      (node (ref U$1) (pin 4))
      (node (ref U$2) (pin 1)))
    (net (code 4) (name /USB_D-)
      (node (ref J4) (pin 2))
      (node (ref U$2) (pin USB_D-)))
    (net (code 5) (name /USB_D+)
      (node (ref J4) (pin 3))
      (node (ref U$2) (pin USB-D+)))
    (net (code 6) (name 5V)
      (node (ref C17) (pin 1))
      (node (ref U3) (pin 8))
      (node (ref R7) (pin 1))
      (node (ref U$1) (pin 8))
      (node (ref U$2) (pin VIN))
      (node (ref C3) (pin 1))
      (node (ref R5) (pin 1))
      (node (ref JP2) (pin 1))
      (node (ref B1) (pin 8))
      (node (ref B1) (pin 9))
      (node (ref R6) (pin 1))
      (node (ref J3) (pin 5)))
    (net (code 7) (name "Net-(U$2-PadVBAT)")
      (node (ref U$2) (pin VBAT)))
    (net (code 8) (name "Net-(U$2-PadVUSB)")
      (node (ref U$2) (pin VUSB)))
    (net (code 9) (name /CS_TIMO)
      (node (ref U$3) (pin 3))
      (node (ref J9) (pin 5))
      (node (ref U$2) (pin 22/A8)))
    (net (code 10) (name /IRQ_TIMO)
      (node (ref U$3) (pin 2))
      (node (ref J9) (pin 6))
      (node (ref U$2) (pin 21/A7)))
    (net (code 11) (name "Net-(U$3-Pad10)")
      (node (ref U$3) (pin 10)))
    (net (code 12) (name "Net-(U$3-Pad11)")
      (node (ref U$3) (pin 11)))
    (net (code 13) (name "Net-(U$3-Pad12)")
      (node (ref U$3) (pin 12)))
    (net (code 14) (name "Net-(U$3-Pad13)")
      (node (ref U$3) (pin 13)))
    (net (code 15) (name "Net-(U$3-Pad14)")
      (node (ref U$3) (pin 14)))
    (net (code 16) (name "Net-(U$3-Pad15)")
      (node (ref U$3) (pin 15)))
    (net (code 17) (name "Net-(U$3-Pad16)")
      (node (ref U$3) (pin 16)))
    (net (code 18) (name "Net-(U$3-Pad17)")
      (node (ref U$3) (pin 17)))
    (net (code 19) (name "Net-(R13-Pad2)")
      (node (ref R13) (pin 2))
      (node (ref U$3) (pin 18)))
    (net (code 20) (name "Net-(R12-Pad2)")
      (node (ref U$3) (pin 19))
      (node (ref R12) (pin 2)))
    (net (code 21) (name "Net-(JP1-Pad2)")
      (node (ref U$3) (pin 31))
      (node (ref JP1) (pin 2)))
    (net (code 22) (name "Net-(JP3-Pad2)")
      (node (ref U$3) (pin 32))
      (node (ref JP3) (pin 2)))
    (net (code 23) (name "Net-(R11-Pad2)")
      (node (ref U$3) (pin 34))
      (node (ref R11) (pin 2)))
    (net (code 24) (name "Net-(U$3-Pad35)")
      (node (ref U$3) (pin 35)))
    (net (code 25) (name "Net-(U$3-Pad8)")
      (node (ref U$3) (pin 8)))
    (net (code 26) (name "Net-(R10-Pad2)")
      (node (ref U$3) (pin 33))
      (node (ref R10) (pin 2)))
    (net (code 27) (name "Net-(R4-Pad2)")
      (node (ref R4) (pin 2))
      (node (ref U$1) (pin 1)))
    (net (code 28) (name /ADC_CS)
      (node (ref U4) (pin 10))
      (node (ref U$2) (pin 4)))
    (net (code 29) (name /TFT_BACKLIGHT)
      (node (ref X1) (pin 29))
      (node (ref U$2) (pin 6)))
    (net (code 30) (name /TFT_DC)
      (node (ref X1) (pin 25))
      (node (ref U$2) (pin 9)))
    (net (code 31) (name /TFT_CS)
      (node (ref U$2) (pin 10))
      (node (ref X1) (pin 23)))
    (net (code 32) (name /MOSI)
      (node (ref X1) (pin 34))
      (node (ref X1) (pin 27))
      (node (ref U$3) (pin 5))
      (node (ref U$2) (pin 11))
      (node (ref U4) (pin 11))
      (node (ref U1) (pin 5))
      (node (ref J9) (pin 3)))
    (net (code 33) (name /MISO)
      (node (ref J9) (pin 2))
      (node (ref U1) (pin 2))
      (node (ref U4) (pin 12))
      (node (ref U$2) (pin 12))
      (node (ref U$3) (pin 6))
      (node (ref X1) (pin 28))
      (node (ref X1) (pin 32)))
    (net (code 34) (name /SCK)
      (node (ref J9) (pin 4))
      (node (ref X1) (pin 33))
      (node (ref U$2) (pin 13))
      (node (ref X1) (pin 24))
      (node (ref U1) (pin 6))
      (node (ref U4) (pin 13))
      (node (ref U$3) (pin 4)))
    (net (code 35) (name /ENC_B)
      (node (ref SW12) (pin A))
      (node (ref U$2) (pin 14/A0)))
    (net (code 36) (name /ENC_A)
      (node (ref U$2) (pin 15/A1))
      (node (ref SW12) (pin B)))
    (net (code 37) (name /LED_RST)
      (node (ref U$2) (pin 17/A3))
      (node (ref R29) (pin 1))
      (node (ref U6) (pin 35)))
    (net (code 38) (name /SD_CS)
      (node (ref X1) (pin 35))
      (node (ref U$2) (pin 20/A6)))
    (net (code 39) (name "Net-(C9-Pad1)")
      (node (ref POT2) (pin 2))
      (node (ref U4) (pin 2))
      (node (ref C9) (pin 1)))
    (net (code 40) (name "Net-(C4-Pad1)")
      (node (ref POT1) (pin 2))
      (node (ref C4) (pin 1))
      (node (ref U4) (pin 1)))
    (net (code 41) (name "Net-(POT2-PadLED-)")
      (node (ref POT2) (pin LED-))
      (node (ref U6) (pin 7)))
    (net (code 42) (name "Net-(POT6-PadLED-)")
      (node (ref POT6) (pin LED-))
      (node (ref U6) (pin 11)))
    (net (code 43) (name "Net-(X1-Pad10)")
      (node (ref X1) (pin 10)))
    (net (code 44) (name "Net-(X1-Pad11)")
      (node (ref X1) (pin 11)))
    (net (code 45) (name "Net-(X1-Pad12)")
      (node (ref X1) (pin 12)))
    (net (code 46) (name "Net-(X1-Pad13)")
      (node (ref X1) (pin 13)))
    (net (code 47) (name "Net-(X1-Pad14)")
      (node (ref X1) (pin 14)))
    (net (code 48) (name "Net-(X1-Pad15)")
      (node (ref X1) (pin 15)))
    (net (code 49) (name "Net-(X1-Pad16)")
      (node (ref X1) (pin 16)))
    (net (code 50) (name "Net-(X1-Pad17)")
      (node (ref X1) (pin 17)))
    (net (code 51) (name "Net-(X1-Pad18)")
      (node (ref X1) (pin 18)))
    (net (code 52) (name "Net-(X1-Pad19)")
      (node (ref X1) (pin 19)))
    (net (code 53) (name "Net-(X1-Pad20)")
      (node (ref X1) (pin 20)))
    (net (code 54) (name "Net-(X1-Pad22)")
      (node (ref X1) (pin 22)))
    (net (code 55) (name "Net-(X1-Pad26)")
      (node (ref X1) (pin 26)))
    (net (code 56) (name "Net-(X1-Pad3)")
      (node (ref X1) (pin 3)))
    (net (code 57) (name "Net-(X1-Pad36)")
      (node (ref X1) (pin 36)))
    (net (code 58) (name "Net-(X1-Pad37)")
      (node (ref X1) (pin 37)))
    (net (code 59) (name "Net-(X1-Pad38)")
      (node (ref X1) (pin 38)))
    (net (code 60) (name "Net-(X1-Pad39)")
      (node (ref X1) (pin 39)))
    (net (code 61) (name "Net-(X1-Pad4)")
      (node (ref X1) (pin 4)))
    (net (code 62) (name "Net-(X1-Pad5)")
      (node (ref X1) (pin 5)))
    (net (code 63) (name "Net-(X1-Pad6)")
      (node (ref X1) (pin 6)))
    (net (code 64) (name "Net-(X1-Pad7)")
      (node (ref X1) (pin 7)))
    (net (code 65) (name "Net-(X1-Pad8)")
      (node (ref X1) (pin 8)))
    (net (code 66) (name "Net-(X1-Pad9)")
      (node (ref X1) (pin 9)))
    (net (code 67) (name /TP_PEN)
      (node (ref X1) (pin 31))
      (node (ref U$2) (pin RESET/DAC)))
    (net (code 68) (name /RX1)
      (node (ref U$2) (pin 0))
      (node (ref R3) (pin 1))
      (node (ref R4) (pin 1)))
    (net (code 69) (name /REN)
      (node (ref U$2) (pin 2))
      (node (ref U$1) (pin 3))
      (node (ref R5) (pin 2))
      (node (ref U$1) (pin 2)))
    (net (code 70) (name GND)
      (node (ref SW8) (pin 2))
      (node (ref SW7) (pin 2))
      (node (ref POT6) (pin 3))
      (node (ref SW9) (pin 2))
      (node (ref C3) (pin 2))
      (node (ref POT7) (pin 3))
      (node (ref SW10) (pin 2))
      (node (ref SW11) (pin 2))
      (node (ref POT1) (pin 3))
      (node (ref SW6) (pin 2))
      (node (ref J5) (pin 1))
      (node (ref X1) (pin 1))
      (node (ref X1) (pin 40))
      (node (ref U6) (pin 14))
      (node (ref U6) (pin 18))
      (node (ref U6) (pin 2))
      (node (ref U6) (pin 21))
      (node (ref POT3) (pin 3))
      (node (ref C7) (pin 1))
      (node (ref J4) (pin 4))
      (node (ref U6) (pin 25))
      (node (ref U6) (pin 3))
      (node (ref U6) (pin 34))
      (node (ref SW5) (pin 2))
      (node (ref U6) (pin 4))
      (node (ref U6) (pin 5))
      (node (ref POT2) (pin 3))
      (node (ref R28) (pin 1))
      (node (ref C4) (pin 2))
      (node (ref SW12) (pin C))
      (node (ref C9) (pin 2))
      (node (ref SW12) (pin E))
      (node (ref C10) (pin 2))
      (node (ref B1) (pin 10))
      (node (ref B1) (pin 11))
      (node (ref SW4) (pin 2))
      (node (ref C17) (pin 2))
      (node (ref B1) (pin 3))
      (node (ref B1) (pin 4))
      (node (ref C8) (pin 2))
      (node (ref U4) (pin 9))
      (node (ref B3) (pin 5))
      (node (ref B3) (pin 7))
      (node (ref B2) (pin 2))
      (node (ref B2) (pin 7))
      (node (ref J1) (pin 2))
      (node (ref J3) (pin 6))
      (node (ref JP1) (pin 1))
      (node (ref D4) (pin 1))
      (node (ref D3) (pin 1))
      (node (ref D2) (pin 1))
      (node (ref D1) (pin 1))
      (node (ref J7) (pin 2))
      (node (ref U3) (pin 5))
      (node (ref U$2) (pin USB_GND))
      (node (ref U$2) (pin GND2))
      (node (ref U$2) (pin GND1))
      (node (ref U$2) (pin GND))
      (node (ref U$2) (pin AGND))
      (node (ref J9) (pin 1))
      (node (ref C26) (pin 2))
      (node (ref U$1) (pin 5))
      (node (ref POT5) (pin 3))
      (node (ref C16) (pin 2))
      (node (ref R9) (pin 2))
      (node (ref R3) (pin 2))
      (node (ref U$3) (pin 1))
      (node (ref U$3) (pin 22))
      (node (ref U$3) (pin 23))
      (node (ref U$3) (pin 24))
      (node (ref U$3) (pin 25))
      (node (ref SW3) (pin 2))
      (node (ref U$3) (pin 26))
      (node (ref U$3) (pin 27))
      (node (ref U$3) (pin 28))
      (node (ref SW2) (pin 2))
      (node (ref U$3) (pin 29))
      (node (ref U$3) (pin 30))
      (node (ref U2) (pin 10))
      (node (ref U$3) (pin 37))
      (node (ref U$3) (pin 7))
      (node (ref U$3) (pin 9))
      (node (ref C1) (pin 2))
      (node (ref U2) (pin 15))
      (node (ref U2) (pin 16))
      (node (ref U2) (pin 17))
      (node (ref C2) (pin 2))
      (node (ref C5) (pin 1))
      (node (ref M1) (pin 3))
      (node (ref U1) (pin 4))
      (node (ref C15) (pin 2))
      (node (ref C14) (pin 2))
      (node (ref C13) (pin 2))
      (node (ref C12) (pin 2))
      (node (ref C11) (pin 2))
      (node (ref JP3) (pin 1))
      (node (ref POT4) (pin 3))
      (node (ref J2) (pin 1))
      (node (ref D9) (pin 1))
      (node (ref D6) (pin 1))
      (node (ref U4) (pin 14))
      (node (ref C6) (pin 2))
      (node (ref POT8) (pin 3)))
    (net (code 71) (name "Net-(C15-Pad1)")
      (node (ref C15) (pin 1))
      (node (ref U4) (pin 8))
      (node (ref POT8) (pin 2)))
    (net (code 72) (name "Net-(POT8-PadLED-)")
      (node (ref POT8) (pin LED-))
      (node (ref U6) (pin 13)))
    (net (code 73) (name /DMX-)
      (node (ref R9) (pin 1))
      (node (ref R8) (pin 2))
      (node (ref J5) (pin 2))
      (node (ref U$1) (pin 6)))
    (net (code 74) (name /DMX+)
      (node (ref J5) (pin 3))
      (node (ref U$1) (pin 7))
      (node (ref R7) (pin 2))
      (node (ref R8) (pin 1)))
    (net (code 75) (name "Net-(D1-Pad2)")
      (node (ref R10) (pin 1))
      (node (ref D1) (pin 2)))
    (net (code 76) (name "Net-(D2-Pad2)")
      (node (ref D2) (pin 2))
      (node (ref R11) (pin 1)))
    (net (code 77) (name "Net-(D3-Pad2)")
      (node (ref D3) (pin 2))
      (node (ref R12) (pin 1)))
    (net (code 78) (name "Net-(D4-Pad2)")
      (node (ref R13) (pin 1))
      (node (ref D4) (pin 2)))
    (net (code 79) (name "Net-(J8-Pad6)")
      (node (ref J8) (pin 6))
      (node (ref U6) (pin 26)))
    (net (code 80) (name "Net-(J8-Pad4)")
      (node (ref U6) (pin 28))
      (node (ref J8) (pin 4)))
    (net (code 81) (name "Net-(SW4-Pad3)")
      (node (ref U6) (pin 15))
      (node (ref SW4) (pin 3)))
    (net (code 82) (name "Net-(SW5-Pad3)")
      (node (ref U6) (pin 16))
      (node (ref SW5) (pin 3)))
    (net (code 83) (name "Net-(SW6-Pad3)")
      (node (ref U6) (pin 17))
      (node (ref SW6) (pin 3)))
    (net (code 84) (name "Net-(SW7-Pad3)")
      (node (ref U6) (pin 19))
      (node (ref SW7) (pin 3)))
    (net (code 85) (name "Net-(SW8-Pad3)")
      (node (ref SW8) (pin 3))
      (node (ref U6) (pin 20)))
    (net (code 86) (name "Net-(SW9-Pad3)")
      (node (ref U6) (pin 22))
      (node (ref SW9) (pin 3)))
    (net (code 87) (name "Net-(SW10-Pad3)")
      (node (ref U6) (pin 23))
      (node (ref SW10) (pin 3)))
    (net (code 88) (name "Net-(SW11-Pad3)")
      (node (ref SW11) (pin 3))
      (node (ref U6) (pin 24)))
    (net (code 89) (name "Net-(POT1-PadLED-)")
      (node (ref POT1) (pin LED-))
      (node (ref U6) (pin 6)))
    (net (code 90) (name "Net-(POT3-PadLED-)")
      (node (ref POT3) (pin LED-))
      (node (ref U6) (pin 8)))
    (net (code 91) (name "Net-(POT4-PadLED-)")
      (node (ref U6) (pin 9))
      (node (ref POT4) (pin LED-)))
    (net (code 92) (name "Net-(POT5-PadLED-)")
      (node (ref U6) (pin 10))
      (node (ref POT5) (pin LED-)))
    (net (code 93) (name "Net-(POT7-PadLED-)")
      (node (ref U6) (pin 12))
      (node (ref POT7) (pin LED-)))
    (net (code 94) (name /LBO_OUTPUT)
      (node (ref U2) (pin 26)))
    (net (code 95) (name /CHARGE)
      (node (ref U2) (pin 25)))
    (net (code 96) (name /DONE)
      (node (ref U2) (pin 24)))
    (net (code 97) (name "Net-(SW3-Pad1)")
      (node (ref U2) (pin 21))
      (node (ref SW3) (pin 1)))
    (net (code 98) (name "Net-(R15-Pad1)")
      (node (ref R15) (pin 1))
      (node (ref U2) (pin 18)))
    (net (code 99) (name "Net-(U2-Pad19)")
      (node (ref U2) (pin 19)))
    (net (code 100) (name "Net-(U2-Pad20)")
      (node (ref U2) (pin 20)))
    (net (code 101) (name "Net-(SW2-Pad1)")
      (node (ref U2) (pin 22))
      (node (ref SW2) (pin 1)))
    (net (code 102) (name "Net-(SW12-PadD)")
      (node (ref U2) (pin 23))
      (node (ref SW12) (pin D)))
    (net (code 103) (name "Net-(SW11-Pad1)")
      (node (ref U2) (pin 1))
      (node (ref SW11) (pin 1)))
    (net (code 104) (name "Net-(U2-Pad11)")
      (node (ref U2) (pin 11)))
    (net (code 105) (name "Net-(U2-Pad14)")
      (node (ref U2) (pin 14)))
    (net (code 106) (name "Net-(SW10-Pad1)")
      (node (ref SW10) (pin 1))
      (node (ref U2) (pin 2)))
    (net (code 107) (name "Net-(U2-Pad27)")
      (node (ref U2) (pin 27)))
    (net (code 108) (name "Net-(U2-Pad28)")
      (node (ref U2) (pin 28)))
    (net (code 109) (name "Net-(SW9-Pad1)")
      (node (ref U2) (pin 3))
      (node (ref SW9) (pin 1)))
    (net (code 110) (name "Net-(SW8-Pad1)")
      (node (ref U2) (pin 4))
      (node (ref SW8) (pin 1)))
    (net (code 111) (name "Net-(SW7-Pad1)")
      (node (ref U2) (pin 5))
      (node (ref SW7) (pin 1)))
    (net (code 112) (name "Net-(SW6-Pad1)")
      (node (ref U2) (pin 6))
      (node (ref SW6) (pin 1)))
    (net (code 113) (name "Net-(SW5-Pad1)")
      (node (ref SW5) (pin 1))
      (node (ref U2) (pin 7)))
    (net (code 114) (name "Net-(SW4-Pad1)")
      (node (ref SW4) (pin 1))
      (node (ref U2) (pin 8)))
    (net (code 115) (name /LED_UBUT2)
      (node (ref SW2) (pin 3)))
    (net (code 116) (name /LED_UBUT1)
      (node (ref SW3) (pin 3)))
    (net (code 117) (name /LED_UBUT0)
      (node (ref D5) (pin 1)))
    (net (code 118) (name /LED_UBUT0)
      (node (ref U6) (pin 33)))
    (net (code 119) (name /LED_UBUT1)
      (node (ref U6) (pin 32)))
    (net (code 120) (name /LED_UBUT2)
      (node (ref U6) (pin 31)))
    (net (code 121) (name /FLASH_CS)
      (node (ref U$2) (pin 16/A2))
      (node (ref U1) (pin 1)))
    (net (code 122) (name "Net-(J8-Pad2)")
      (node (ref U6) (pin 30))
      (node (ref J8) (pin 2)))
    (net (code 123) (name "Net-(J8-Pad3)")
      (node (ref J8) (pin 3))
      (node (ref U6) (pin 29)))
    (net (code 124) (name "Net-(J8-Pad5)")
      (node (ref U6) (pin 27))
      (node (ref J8) (pin 5)))
    (net (code 125) (name VDDA)
      (node (ref U4) (pin 15))
      (node (ref M1) (pin 2))
      (node (ref POT8) (pin 1))
      (node (ref POT5) (pin 1))
      (node (ref POT4) (pin 1))
      (node (ref POT7) (pin 1))
      (node (ref POT2) (pin 1))
      (node (ref POT3) (pin 1))
      (node (ref C7) (pin 2))
      (node (ref POT1) (pin 1))
      (node (ref POT6) (pin 1)))
    (net (code 126) (name /SCL)
      (node (ref J3) (pin 3))
      (node (ref U2) (pin 12))
      (node (ref R2) (pin 1))
      (node (ref U$2) (pin 19/A5))
      (node (ref B2) (pin 5))
      (node (ref U6) (pin 36)))
    (net (code 127) (name /SDA)
      (node (ref U6) (pin 37))
      (node (ref U2) (pin 13))
      (node (ref U$2) (pin 18/A4))
      (node (ref J3) (pin 2))
      (node (ref R1) (pin 1))
      (node (ref B2) (pin 4)))
    (net (code 128) (name "Net-(U$2-Pad25)")
      (node (ref U$2) (pin 25)))
    (net (code 129) (name "Net-(U$2-Pad26)")
      (node (ref U$2) (pin 26)))
    (net (code 130) (name "Net-(U$2-Pad27)")
      (node (ref U$2) (pin 27)))
    (net (code 131) (name "Net-(U$2-Pad28)")
      (node (ref U$2) (pin 28)))
    (net (code 132) (name "Net-(U$2-Pad29)")
      (node (ref U$2) (pin 29)))
    (net (code 133) (name "Net-(U$2-Pad30)")
      (node (ref U$2) (pin 30)))
    (net (code 134) (name "Net-(U$2-Pad31)")
      (node (ref U$2) (pin 31)))
    (net (code 135) (name "Net-(U$2-Pad32)")
      (node (ref U$2) (pin 32)))
    (net (code 136) (name "Net-(U$2-Pad33)")
      (node (ref U$2) (pin 33)))
    (net (code 137) (name "Net-(U$2-PadA10)")
      (node (ref U$2) (pin A10)))
    (net (code 138) (name "Net-(U$2-PadA11)")
      (node (ref U$2) (pin A11)))
    (net (code 139) (name "Net-(U$2-PadA12)")
      (node (ref U$2) (pin A12)))
    (net (code 140) (name "Net-(U$2-PadA13)")
      (node (ref U$2) (pin A13)))
    (net (code 141) (name "Net-(U$2-PadAREF)")
      (node (ref U$2) (pin AREF)))
    (net (code 142) (name "Net-(U$2-PadPGM)")
      (node (ref U$2) (pin PGM)))
    (net (code 143) (name "Net-(U$2-Pad24)")
      (node (ref U$2) (pin 24)))
    (net (code 144) (name "Net-(U$2-Pad23/A9)")
      (node (ref U$2) (pin 23/A9)))
    (net (code 145) (name "Net-(U$2-Pad5)")
      (node (ref U$2) (pin 5)))
    (net (code 146) (name "Net-(C10-Pad1)")
      (node (ref C10) (pin 1))
      (node (ref POT3) (pin 2))
      (node (ref U4) (pin 3)))
    (net (code 147) (name "Net-(R28-Pad2)")
      (node (ref R28) (pin 2))
      (node (ref U6) (pin 1)))
    (net (code 148) (name "Net-(J4-Pad5)")
      (node (ref J4) (pin 5)))
    (net (code 149) (name "Net-(SW12-PadGND1)")
      (node (ref SW12) (pin GND1)))
    (net (code 150) (name "Net-(B1-Pad12)")
      (node (ref J2) (pin 3))
      (node (ref B1) (pin 12)))
    (net (code 151) (name "Net-(B1-Pad13)")
      (node (ref J2) (pin 4))
      (node (ref B1) (pin 13)))
    (net (code 152) (name "Net-(B1-Pad1)")
      (node (ref JP2) (pin 2))
      (node (ref B1) (pin 1))
      (node (ref B3) (pin 8))
      (node (ref B1) (pin 2)))
    (net (code 153) (name "Net-(B1-Pad5)")
      (node (ref B1) (pin 5)))
    (net (code 154) (name "Net-(B1-Pad6)")
      (node (ref B1) (pin 6)))
    (net (code 155) (name "Net-(B1-Pad7)")
      (node (ref B1) (pin 7)))
    (net (code 156) (name "Net-(B3-Pad11)")
      (node (ref B3) (pin 11))
      (node (ref R18) (pin 1)))
    (net (code 157) (name "Net-(B3-Pad3)")
      (node (ref B3) (pin 3)))
    (net (code 158) (name "Net-(B3-Pad4)")
      (node (ref B3) (pin 4))
      (node (ref J2) (pin 2)))
    (net (code 159) (name "Net-(B3-Pad6)")
      (node (ref B3) (pin 6))
      (node (ref R19) (pin 1)))
    (net (code 160) (name "Net-(B3-Pad9)")
      (node (ref R16) (pin 1))
      (node (ref B3) (pin 9)))
    (net (code 161) (name "Net-(B2-Pad1)")
      (node (ref B2) (pin 1)))
    (net (code 162) (name "Net-(B2-Pad3)")
      (node (ref B2) (pin 3)))
    (net (code 163) (name "Net-(B2-Pad6)")
      (node (ref B2) (pin 6)))
    (net (code 164) (name VBUS)
      (node (ref J3) (pin 4))
      (node (ref J4) (pin 1))
      (node (ref B3) (pin 1))
      (node (ref D7) (pin 2))
      (node (ref D8) (pin 2)))
    (net (code 165) (name /BATT_+)
      (node (ref B2) (pin 8))
      (node (ref J1) (pin 1))
      (node (ref B3) (pin 2)))
    (net (code 166) (name "Net-(D6-Pad2)")
      (node (ref D6) (pin 2))
      (node (ref R16) (pin 2)))
    (net (code 167) (name "Net-(B3-Pad10)")
      (node (ref B3) (pin 10))
      (node (ref R17) (pin 1)))
    (net (code 168) (name "Net-(D7-Pad1)")
      (node (ref R17) (pin 2))
      (node (ref D7) (pin 1)))
    (net (code 169) (name "Net-(D8-Pad1)")
      (node (ref D8) (pin 1))
      (node (ref R18) (pin 2)))
    (net (code 170) (name "Net-(D9-Pad2)")
      (node (ref D9) (pin 2))
      (node (ref R19) (pin 2)))
    (net (code 171) (name "Net-(C11-Pad1)")
      (node (ref C11) (pin 1))
      (node (ref U4) (pin 4))
      (node (ref POT4) (pin 2)))
    (net (code 172) (name "Net-(C12-Pad1)")
      (node (ref C12) (pin 1))
      (node (ref POT5) (pin 2))
      (node (ref U4) (pin 5)))
    (net (code 173) (name "Net-(C13-Pad1)")
      (node (ref C13) (pin 1))
      (node (ref U4) (pin 6))
      (node (ref POT6) (pin 2)))
    (net (code 174) (name "Net-(C14-Pad1)")
      (node (ref POT7) (pin 2))
      (node (ref U4) (pin 7))
      (node (ref C14) (pin 1)))
    (net (code 175) (name /MIDI_TX)
      (node (ref U$2) (pin 8)))
    (net (code 176) (name USB_5V)
      (node (ref U$2) (pin USB_5V)))
    (net (code 177) (name "Net-(U3-Pad1)")
      (node (ref U3) (pin 1)))
    (net (code 178) (name "Net-(D10-Pad1)")
      (node (ref U3) (pin 2))
      (node (ref R14) (pin 1))
      (node (ref D10) (pin 1)))
    (net (code 179) (name "Net-(U3-Pad4)")
      (node (ref U3) (pin 4)))
    (net (code 180) (name "Net-(U3-Pad7)")
      (node (ref U3) (pin 7)))
    (net (code 181) (name "Net-(J6-Pad1)")
      (node (ref J6) (pin 1)))
    (net (code 182) (name "Net-(J6-Pad2)")
      (node (ref J6) (pin 2)))
    (net (code 183) (name "Net-(J6-Pad3)")
      (node (ref J6) (pin 3)))
    (net (code 184) (name "Net-(D10-Pad2)")
      (node (ref D10) (pin 2))
      (node (ref J6) (pin 5))
      (node (ref U3) (pin 3)))
    (net (code 185) (name "Net-(J7-Pad1)")
      (node (ref J7) (pin 1)))
    (net (code 186) (name "Net-(J7-Pad3)")
      (node (ref J7) (pin 3)))
    (net (code 187) (name "Net-(J6-Pad4)")
      (node (ref J6) (pin 4))
      (node (ref R14) (pin 2)))
    (net (code 188) (name /MIDI_RX)
      (node (ref U$2) (pin 7)))
    (net (code 189) (name "Net-(J7-Pad5)")
      (node (ref R22) (pin 1))
      (node (ref J7) (pin 5)))
    (net (code 190) (name /MIDI_TX)
      (node (ref R22) (pin 2)))
    (net (code 191) (name "Net-(J7-Pad4)")
      (node (ref R21) (pin 1))
      (node (ref J7) (pin 4)))
    (net (code 192) (name /MIDI_RX)
      (node (ref U3) (pin 6))
      (node (ref R20) (pin 1)))))